…
``` r
d3 %>%
  group_by(Season, gameweek) %>% 
  summarise(goals = sum(totgoal)) %>%
  group_by(Season) %>%
  mutate(rank = dense_rank(desc(goals))) %>%
  subset( (Season %in% 1992:1994 & gameweek == 42) | (Season %in% 1995:2016 & gameweek == 38) ) %>%
  select(Season, rank)
```

    ## Source: local data frame [25 x 2]
    ## Groups: Season [25]
    ## 
    ## # A tibble: 25 x 2
    ##    Season  rank
    ##     <dbl> <int>
    ##  1   1992     1
    ##  2   1993     4
    ##  3   1994     3
    ##  4   1995    11
    ##  5   1996     2
    ##  6   1997    13
    ##  7   1998     9
    ##  8   1999    11
    ##  9   2000     5
    ## 10   2001     5
    ## # ... with 15 more rows
…
