…
<!-- html to show R code --> 
<a id="displayText" href="javascript:toggle(9);" markdown="1">
(Click here to show R code)
</a>
<div markdown="1" id="toggleText9" style="display: none">

``` r
hoodability %>% 
  group_by(team) %>% 
  summarise(hoodability = mean(hoodability)) %>%
  arrange(desc(hoodability))
```
</div>

    ## # A tibble: 47 x 2
    ##                       team hoodability
    ##                      <chr>       <dbl>
    ##  1               Blackpool  0.03333333
    ##  2         Oldham Athletic -0.39166667
    ##  3            Ipswich Town -0.39333333
    ##  4           Bradford City -0.45833333
    ##  5            Norwich City -0.46250000
    ##  6               Wimbledon -0.47708333
    ##  7          Leicester City -0.54242424
    ##  8 Wolverhampton Wanderers -0.57500000
    ##  9            Swindon Town -0.66666667
    ## 10           Coventry City -0.67037037
    ## # ... with 37 more rows
…
``` r
hoodability %>% 
  group_by(team) %>% 
  summarise(hoodability = mean(hoodability), n_seasons = n()) %>%
  arrange(desc(hoodability)) %>% 
  filter(n_seasons >= 5)
```
</div>

    ## # A tibble: 35 x 3
    ##                    team hoodability n_seasons
    ##                   <chr>       <dbl>     <int>
    ##  1         Ipswich Town  -0.3933333         5
    ##  2         Norwich City  -0.4625000         8
    ##  3            Wimbledon  -0.4770833         8
    ##  4       Leicester City  -0.5424242        11
    ##  5        Coventry City  -0.6703704         9
    ##  6     Blackburn Rovers  -0.6935185        18
    ##  7 West Bromwich Albion  -0.6969697        11
    ##  8       Crystal Palace  -0.7104167         8
    ##  9            Liverpool  -0.7140000        25
    ## 10         Derby County  -0.7738095         7
    ## # ... with 25 more rows
…
